{
  "eth-apis": [
    "eth",
    "eth-filter",
    "net",
    "web3",
    "internal-eth",
    "internal-blockchain",
    "internal-public-transaction-pool",
    "internal-tx-pool",
    "private-debug",
    "public-debug",
    "debug-tracer"
  ],
  "log-level": "error"
}
